<?xml version="1.0" encoding="UTF-8" standalone="no"?>
<svg
   xmlns:dc="http://purl.org/dc/elements/1.1/"
   xmlns:cc="http://creativecommons.org/ns#"
   xmlns:rdf="http://www.w3.org/1999/02/22-rdf-syntax-ns#"
   xmlns:svg="http://www.w3.org/2000/svg"
   xmlns="http://www.w3.org/2000/svg"
   xmlns:xlink="http://www.w3.org/1999/xlink"
   id="svg1978"
   version="1.1"
   viewBox="0 0 50.799999 50.800001"
   height="192"
   width="192">
  <defs
     id="defs1972">
    <linearGradient
       id="linearGradient2226">
      <stop
         id="stop2222"
         offset="0"
         style="stop-color:#4d4d4d;stop-opacity:1" />
      <stop
         style="stop-color:#959595;stop-opacity:1;"
         offset="0.62985075"
         id="stop2230" />
      <stop
         id="stop2224"
         offset="1"
         style="stop-color:#cccccc;stop-opacity:1" />
    </linearGradient>
    <linearGradient
       id="linearGradient2216">
      <stop
         id="stop2212"
         offset="0"
         style="stop-color:#000000;stop-opacity:1;" />
      <stop
         id="stop2214"
         offset="1"
         style="stop-color:#ffffff;stop-opacity:1" />
    </linearGradient>
    <linearGradient
       id="linearGradient2200">
      <stop
         id="stop2196"
         offset="0"
         style="stop-color:#000000;stop-opacity:1;" />
      <stop
         id="stop2198"
         offset="1"
         style="stop-color:#ffffff;stop-opacity:1" />
    </linearGradient>
    <linearGradient
       id="linearGradient2194">
      <stop
         style="stop-color:#2947ad;stop-opacity:1"
         offset="0"
         id="stop2186" />
      <stop
         id="stop2188"
         offset="0.53484315"
         style="stop-color:#0f1a40;stop-opacity:1" />
      <stop
         style="stop-color:#4565d3;stop-opacity:1"
         offset="0.75767034"
         id="stop2190" />
      <stop
         id="stop2252"
         offset="0.94869566"
         style="stop-color:#152459;stop-opacity:1;" />
      <stop
         style="stop-color:#8ea2e4;stop-opacity:1"
         offset="1"
         id="stop2192" />
    </linearGradient>
    <linearGradient
       id="linearGradient2182">
      <stop
         id="stop2178"
         offset="0"
         style="stop-color:#0f1a40;stop-opacity:1" />
      <stop
         style="stop-color:#2947ad;stop-opacity:1"
         offset="0.3186911"
         id="stop2260" />
      <stop
         style="stop-color:#25409c;stop-opacity:1;"
         offset="0.85743016"
         id="stop2210" />
      <stop
         id="stop2180"
         offset="1"
         style="stop-color:#8ea2e4;stop-opacity:1" />
    </linearGradient>
    <linearGradient
       id="linearGradient2140">
      <stop
         id="stop2136"
         offset="0"
         style="stop-color:#2947ad;stop-opacity:1" />
      <stop
         style="stop-color:#0f1a40;stop-opacity:1"
         offset="0.54758924"
         id="stop2174" />
      <stop
         id="stop2176"
         offset="0.73977339"
         style="stop-color:#4565d3;stop-opacity:1" />
      <stop
         style="stop-color:#1d327b;stop-opacity:1"
         offset="0.9246859"
         id="stop2254" />
      <stop
         id="stop2138"
         offset="1"
         style="stop-color:#8ea2e4;stop-opacity:1" />
    </linearGradient>
    <linearGradient
       id="linearGradient2128">
      <stop
         id="stop2124"
         offset="0"
         style="stop-color:#666666;stop-opacity:1" />
      <stop
         style="stop-color:#0d0d0d;stop-opacity:1;"
         offset="0.04279561"
         id="stop2250" />
      <stop
         style="stop-color:#808080;stop-opacity:1"
         offset="0.26713771"
         id="stop2134" />
      <stop
         id="stop2240"
         offset="0.64980531"
         style="stop-color:#b3b3b3;stop-opacity:1" />
      <stop
         style="stop-color:#808080;stop-opacity:1"
         offset="0.90790224"
         id="stop2132" />
      <stop
         id="stop2126"
         offset="1"
         style="stop-color:#e6e6e6;stop-opacity:1" />
    </linearGradient>
    <linearGradient
       gradientUnits="userSpaceOnUse"
       y2="116.32736"
       x2="107.15625"
       y1="165.73921"
       x1="107.15625"
       id="linearGradient2130"
       xlink:href="#linearGradient2128" />
    <radialGradient
       gradientTransform="matrix(-0.99985236,-1.8274845e-7,-6.093153e-7,-1,-119.28604,272.62719)"
       gradientUnits="userSpaceOnUse"
       r="24.479933"
       fy="123.96996"
       fx="-47.529301"
       cy="123.96996"
       cx="-47.529301"
       id="radialGradient2144"
       xlink:href="#linearGradient2194" />
    <radialGradient
       gradientTransform="matrix(-1.0089084,0.00223839,-0.00221755,-0.99999754,-279.98222,321.20265)"
       gradientUnits="userSpaceOnUse"
       r="14.776998"
       fy="162.57907"
       fx="-132.36606"
       cy="162.57907"
       cx="-132.36606"
       id="radialGradient2172"
       xlink:href="#linearGradient2140" />
    <linearGradient
       gradientUnits="userSpaceOnUse"
       y2="115.86325"
       x2="102.88001"
       y1="153.67224"
       x1="102.88001"
       id="linearGradient2184"
       xlink:href="#linearGradient2182" />
    <linearGradient
       gradientUnits="userSpaceOnUse"
       y2="129.79172"
       x2="128.11737"
       y1="134.84428"
       x1="126.66589"
       id="linearGradient2202"
       xlink:href="#linearGradient2200" />
    <linearGradient
       gradientUnits="userSpaceOnUse"
       y2="123.2748"
       x2="125.88395"
       y1="130.89198"
       x1="122.40944"
       id="linearGradient2218"
       xlink:href="#linearGradient2216" />
    <linearGradient
       gradientUnits="userSpaceOnUse"
       y2="153.84151"
       x2="127.85044"
       y1="157.71576"
       x1="127.94494"
       id="linearGradient2228"
       xlink:href="#linearGradient2226" />
    <linearGradient
       gradientUnits="userSpaceOnUse"
       y2="135.8485"
       x2="96.350517"
       y1="137.83189"
       x1="96.383926"
       id="linearGradient2238"
       xlink:href="#linearGradient2226" />
    <meshgradient
       y="148.65724"
       x="-67.105186"
       gradientUnits="userSpaceOnUse"
       id="meshgradient5959">
      <meshrow
         id="meshrow5961">
        <meshpatch
           id="meshpatch5963">
          <stop
             id="stop5965"
             style="stop-color:#999999;stop-opacity:1"
             path="c 0,2.57289  -2.08574,4.65864  -4.65864,4.65864" />
          <stop
             id="stop5967"
             style="stop-color:#999999;stop-opacity:1"
             path="l 0,-2.32932" />
          <stop
             id="stop5969"
             style="stop-color:#999999;stop-opacity:1"
             path="c 1.28645,0  2.32932,-1.04287  2.32932,-2.32932" />
          <stop
             id="stop5971"
             style="stop-color:#999999;stop-opacity:1"
             path="l 2.32932,0" />
        </meshpatch>
        <meshpatch
           id="meshpatch5973">
          <stop
             id="stop5975"
             path="c -2.57289,0  -4.65864,-2.08574  -4.65864,-4.65864" />
          <stop
             id="stop5977"
             style="stop-color:#999999;stop-opacity:1"
             path="l 2.32932,0" />
          <stop
             id="stop5979"
             style="stop-color:#999999;stop-opacity:1"
             path="c 0,1.28645  1.04287,2.32932  2.32932,2.32932" />
        </meshpatch>
        <meshpatch
           id="meshpatch5981">
          <stop
             id="stop5983"
             path="c 0,-2.57289  2.08574,-4.65864  4.65864,-4.65864" />
          <stop
             id="stop5985"
             style="stop-color:#ffffff;stop-opacity:1"
             path="l 0,2.32932" />
          <stop
             id="stop5987"
             style="stop-color:#ffffff;stop-opacity:1"
             path="c -1.28645,0  -2.32932,1.04287  -2.32932,2.32932" />
        </meshpatch>
        <meshpatch
           id="meshpatch5989">
          <stop
             id="stop5991"
             path="c 2.57289,0  4.65864,2.08574  4.65864,4.65864" />
          <stop
             id="stop5993"
             style="stop-color:#999999;stop-opacity:1"
             path="l -2.32932,0" />
          <stop
             id="stop5995"
             style="stop-color:#999999;stop-opacity:1"
             path="c 0,-1.28645  -1.04287,-2.32932  -2.32932,-2.32932" />
        </meshpatch>
      </meshrow>
      <meshrow
         id="meshrow5997">
        <meshpatch
           id="meshpatch5999">
          <stop
             id="stop6001"
             path="l 0,-2.32932" />
          <stop
             id="stop6003"
             style="stop-color:#999999;stop-opacity:1"
             path="l 0,0" />
          <stop
             id="stop6005"
             style="stop-color:#999999;stop-opacity:1"
             path="l 2.32932,0" />
        </meshpatch>
        <meshpatch
           id="meshpatch6007">
          <stop
             id="stop6009"
             path="l 2.32932,0" />
          <stop
             id="stop6011"
             style="stop-color:#999999;stop-opacity:1"
             path="l 0,0" />
        </meshpatch>
        <meshpatch
           id="meshpatch6013">
          <stop
             id="stop6015"
             path="l 0,2.32932" />
          <stop
             id="stop6017"
             style="stop-color:#ffffff;stop-opacity:1"
             path="l 0,0" />
        </meshpatch>
        <meshpatch
           id="meshpatch6019">
          <stop
             id="stop6021"
             path="l -2.32932,0" />
          <stop
             id="stop6023"
             style="stop-color:#999999;stop-opacity:1"
             path="l 0,0" />
        </meshpatch>
      </meshrow>
    </meshgradient>
    <meshgradient
       y="158.3277"
       x="-143.9854"
       gradientUnits="userSpaceOnUse"
       id="meshgradient6027">
      <meshrow
         id="meshrow6029">
        <meshpatch
           id="meshpatch6031">
          <stop
             id="stop6033"
             style="stop-color:#999999;stop-opacity:1"
             path="c 0,1.55309  -1.25903,2.81213  -2.81213,2.81213" />
          <stop
             id="stop6035"
             style="stop-color:#999999;stop-opacity:1"
             path="l 0,-1.40606" />
          <stop
             id="stop6037"
             style="stop-color:#999999;stop-opacity:1"
             path="c 0.776547,0  1.40606,-0.629516  1.40606,-1.40606" />
          <stop
             id="stop6039"
             style="stop-color:#999999;stop-opacity:1"
             path="l 1.40606,0" />
        </meshpatch>
        <meshpatch
           id="meshpatch6041">
          <stop
             id="stop6043"
             path="c -1.55309,0  -2.81213,-1.25903  -2.81213,-2.81213" />
          <stop
             id="stop6045"
             style="stop-color:#999999;stop-opacity:1"
             path="l 1.40606,0" />
          <stop
             id="stop6047"
             style="stop-color:#999999;stop-opacity:1"
             path="c 0,0.776547  0.629516,1.40606  1.40606,1.40606" />
        </meshpatch>
        <meshpatch
           id="meshpatch6049">
          <stop
             id="stop6051"
             path="c 0,-1.55309  1.25903,-2.81213  2.81213,-2.81213" />
          <stop
             id="stop6053"
             style="stop-color:#ffffff;stop-opacity:1"
             path="l 0,1.40606" />
          <stop
             id="stop6055"
             style="stop-color:#ffffff;stop-opacity:1"
             path="c -0.776547,0  -1.40606,0.629516  -1.40606,1.40606" />
        </meshpatch>
        <meshpatch
           id="meshpatch6057">
          <stop
             id="stop6059"
             path="c 1.55309,0  2.81213,1.25903  2.81213,2.81213" />
          <stop
             id="stop6061"
             style="stop-color:#999999;stop-opacity:1"
             path="l -1.40606,0" />
          <stop
             id="stop6063"
             style="stop-color:#999999;stop-opacity:1"
             path="c 0,-0.776547  -0.629516,-1.40606  -1.40606,-1.40606" />
        </meshpatch>
      </meshrow>
      <meshrow
         id="meshrow6065">
        <meshpatch
           id="meshpatch6067">
          <stop
             id="stop6069"
             path="l 0,-1.40606" />
          <stop
             id="stop6071"
             style="stop-color:#999999;stop-opacity:1"
             path="l 0,0" />
          <stop
             id="stop6073"
             style="stop-color:#999999;stop-opacity:1"
             path="l 1.40606,0" />
        </meshpatch>
        <meshpatch
           id="meshpatch6075">
          <stop
             id="stop6077"
             path="l 1.40606,0" />
          <stop
             id="stop6079"
             style="stop-color:#999999;stop-opacity:1"
             path="l 0,0" />
        </meshpatch>
        <meshpatch
           id="meshpatch6081">
          <stop
             id="stop6083"
             path="l 0,1.40606" />
          <stop
             id="stop6085"
             style="stop-color:#ffffff;stop-opacity:1"
             path="l 0,0" />
        </meshpatch>
        <meshpatch
           id="meshpatch6087">
          <stop
             id="stop6089"
             path="l -1.40606,0" />
          <stop
             id="stop6091"
             style="stop-color:#999999;stop-opacity:1"
             path="l 0,0" />
        </meshpatch>
      </meshrow>
    </meshgradient>
  </defs>
  <metadata
     id="metadata1975">
    <rdf:RDF>
      <cc:Work
         rdf:about="">
        <dc:format>image/svg+xml</dc:format>
        <dc:type
           rdf:resource="http://purl.org/dc/dcmitype/StillImage" />
        <dc:title></dc:title>
      </cc:Work>
    </rdf:RDF>
  </metadata>
  <g
     transform="translate(-23.645168,-86.505201)"
     id="layer1">
    <g
       transform="matrix(0.44448074,0,0,0.44448074,2.6283954,47.767692)"
       id="g2278">
      <path
         id="path2487"
         d="m 60.913907,120.26091 h 20.536071 l 20.723762,9.57203 c 0,0 1.81117,5.53294 2.72146,13.13808 0.90777,7.58417 0.67254,13.57602 0.67254,13.57602 h 5.17703 l 4.395,-5.23959 13.76371,-0.31282 0.48485,-0.1564 c -4.58887,1.91884 -9.82643,4.2475 -9.8692,4.91114 -0.0699,1.08508 14.71554,9.4783 14.17036,9.61895 l -38.272481,0.70383 -3.347082,-3.72246 c 2.639533,-3.90702 4.176033,-8.61554 4.176033,-13.6855 0,-13.51989 -10.957606,-24.49314 -24.477496,-24.49314 -4.829849,0 -9.328949,1.41747 -13.122441,3.83194 -1.574172,-1.52806 -2.752631,-2.69548 -2.940427,-2.94042 -0.861693,-1.12392 -1.754732,-1.90822 -1.282527,-4.87986 0.505017,-3.17811 3.106789,-4.51471 5.223951,-4.58318 z"
         style="fill:url(#linearGradient2130);fill-opacity:1;stroke:none;stroke-width:0.31281146;stroke-linecap:round;stroke-linejoin:round;stroke-miterlimit:4;stroke-dasharray:none;stroke-opacity:1" />
      <path
         style="color:#000000;font-style:normal;font-variant:normal;font-weight:normal;font-stretch:normal;font-size:medium;line-height:normal;font-family:sans-serif;font-variant-ligatures:normal;font-variant-position:normal;font-variant-caps:normal;font-variant-numeric:normal;font-variant-alternates:normal;font-feature-settings:normal;text-indent:0;text-align:start;text-decoration:none;text-decoration-line:none;text-decoration-style:solid;text-decoration-color:#000000;letter-spacing:normal;word-spacing:normal;text-transform:none;writing-mode:lr-tb;direction:ltr;text-orientation:mixed;dominant-baseline:auto;baseline-shift:baseline;text-anchor:start;white-space:normal;shape-padding:0;clip-rule:nonzero;display:inline;overflow:visible;visibility:visible;opacity:1;isolation:auto;mix-blend-mode:normal;color-interpolation:sRGB;color-interpolation-filters:linearRGB;solid-color:#000000;solid-opacity:1;vector-effect:none;fill:#000000;fill-opacity:1;fill-rule:nonzero;stroke:none;stroke-width:0.31299999;stroke-linecap:butt;stroke-linejoin:round;stroke-miterlimit:4;stroke-dasharray:none;stroke-dashoffset:0;stroke-opacity:1;color-rendering:auto;image-rendering:auto;shape-rendering:auto;text-rendering:auto;enable-background:accumulate"
         d="m 60.879257,120.11133 0.07932,0.3125 H 81.41406 l 20.63086,9.52344 c 0.0308,0.0949 1.7889,5.52108 2.68946,13.04492 0.90624,7.57138 0.67382,13.54297 0.67382,13.54297 -0.003,0.0885 0.0677,0.16202 0.15625,0.16211 h 5.18164 c 0.0461,-3.9e-4 0.0897,-0.0211 0.11914,-0.0566 l 4.35157,-5.18164 13.6875,-0.30078 -0.008,-0.3125 -13.75586,0.30274 c -0.0451,4.9e-4 -0.0878,0.0204 -0.11718,0.0547 l -4.35156,5.18165 h -4.95118 c 0.009,-0.23938 0.21486,-5.99068 -0.67578,-13.43165 -0.91212,-7.62046 -2.7207,-13.16796 -2.7207,-13.16796 -0.0132,-0.0412 -0.0429,-0.0752 -0.082,-0.0937 L 81.513672,120.125 c -0.02087,-0.009 -0.04354,-0.014 -0.06641,-0.0137 z"
         id="path2244" />
      <path
         id="path3315"
         d="m 91.385745,133.85004 c 0,0 8.106016,-0.005 8.796885,2.56118 0.69088,2.56569 -4.921075,5.14844 -4.921075,5.14844 z"
         style="fill:url(#linearGradient2238);fill-opacity:1;stroke:none;stroke-width:0.31281146;stroke-linecap:round;stroke-linejoin:miter;stroke-miterlimit:4;stroke-dasharray:none;stroke-opacity:1" />
      <path
         d="m 150.38038,143.97337 c 0,0 3.46436,-1.12993 1.20397,-5.6104 -2.26039,-4.48047 -10.29837,-9.70798 -22.53371,-15.56406 -12.4237,-5.94623 -23.55726,-6.87239 -31.852913,-7.15697 -8.394798,-0.28798 -35.533989,-0.18694 -37.510196,-0.0401 l 1.232226,4.66575 h 20.528309 l 20.727604,9.56659 c 0,0 1.80362,5.53332 2.71391,13.13846 0.90778,7.58417 0.67426,13.56827 0.67426,13.56827 h 5.1819 l 4.39766,-5.23616 13.7571,-0.30253 z"
         style="fill:url(#linearGradient2184);fill-opacity:1;stroke:none;stroke-width:0.31281146;stroke-linecap:round;stroke-linejoin:round;stroke-miterlimit:4;stroke-dasharray:none;stroke-opacity:1"
         id="path3303" />
      <path
         style="fill:#0f1a40;fill-opacity:1;stroke:none;stroke-width:0.3321811;stroke-linecap:butt;stroke-linejoin:round;stroke-miterlimit:4;stroke-dasharray:none;stroke-opacity:1"
         d="m 144.44733,138.35809 c 0,0 -5.40466,-4.57514 -15.71772,-8.21753 -10.28517,-3.63254 -18.82647,-3.54719 -18.82647,-3.54719 l 5.53141,10.15594 25.44707,5.41133 z"
         id="path2256" />
      <circle
         transform="scale(-1,1)"
         id="path2489"
         style="fill:url(#radialGradient2172);fill-opacity:1;stroke:none;stroke-width:0.31281143;stroke-linecap:round;stroke-linejoin:round;stroke-miterlimit:4;stroke-dasharray:none;stroke-opacity:1"
         cx="-146.79755"
         cy="158.32768"
         r="14.776998" />
      <circle
         transform="scale(-1,1)"
         id="path3279"
         style="fill:#000000;stroke:none;stroke-width:0.31281143;stroke-linecap:round;stroke-linejoin:round;stroke-miterlimit:4;stroke-dasharray:none;stroke-opacity:1"
         cx="-146.79753"
         cy="158.3277"
         r="6.7350354" />
      <circle
         style="fill:url(#meshgradient6027);fill-opacity:1;stroke:none;stroke-width:0.31281143;stroke-linecap:round;stroke-linejoin:round;stroke-miterlimit:4;stroke-dasharray:none;stroke-opacity:1"
         id="path3281"
         transform="scale(-1,1)"
         cx="-146.79753"
         cy="158.3277"
         r="2.8121269" />
      <circle
         style="fill:url(#radialGradient2144);fill-opacity:1;stroke:none;stroke-width:0.31281143;stroke-linecap:round;stroke-linejoin:round;stroke-miterlimit:4;stroke-dasharray:none;stroke-opacity:1"
         id="path3283"
         transform="scale(-1,1)"
         cx="-71.763809"
         cy="148.65724"
         r="24.479933" />
      <circle
         style="fill:#000000;stroke:none;stroke-width:0.31281146;stroke-linecap:round;stroke-linejoin:round;stroke-miterlimit:4;stroke-dasharray:none;stroke-opacity:1"
         id="path3287"
         transform="scale(-1,1)"
         cx="-71.763817"
         cy="148.65724"
         r="11.157423" />
      <circle
         transform="scale(-1,1)"
         id="path3289"
         style="fill:url(#meshgradient5959);fill-opacity:1;stroke:none;stroke-width:0.31281146;stroke-linecap:round;stroke-linejoin:round;stroke-miterlimit:4;stroke-dasharray:none;stroke-opacity:1"
         cx="-71.763824"
         cy="148.65724"
         r="4.658637" />
      <path
         id="path23"
         d="m 102.62734,115.92847 c 7.47332,0.58006 16.5286,2.13346 26.41692,6.86621 10.46548,5.00899 17.85815,9.56092 21.19298,13.57602 -0.007,0.0152 -0.009,0.0317 -0.0156,0.0469 h -2.40865 c 0,0 -9.20247,-7.18285 -19.37867,-10.61995 -10.1477,-3.42747 -20.47351,-3.14375 -20.47351,-3.14375 l -5.34907,-6.69417 c 0.002,-0.0115 0.0136,-0.0198 0.0156,-0.0313 z"
         style="fill:url(#linearGradient2218);fill-opacity:1;stroke:none;stroke-width:0.11751918" />
      <path
         id="path3307"
         d="m 144.67547,138.22547 c 0,0 -5.30901,-4.57155 -15.65908,-8.17038 -10.32207,-3.5891 -19.22614,-3.62958 -19.22614,-3.62958 l 5.34018,8.78988 25.71021,5.77982 z"
         style="fill:url(#linearGradient2202);fill-opacity:1;stroke:none;stroke-width:0.31281146;stroke-linecap:butt;stroke-linejoin:round;stroke-miterlimit:4;stroke-dasharray:none;stroke-opacity:1" />
      <ellipse
         ry="1.0154554"
         rx="2.0348148"
         cy="159.26918"
         cx="-107.72235"
         style="fill:#000000;stroke:none;stroke-width:0.34055126;stroke-linecap:round;stroke-linejoin:round;stroke-miterlimit:4;stroke-dasharray:none;stroke-opacity:1"
         id="ellipse2242"
         transform="scale(-1,1)" />
      <ellipse
         transform="scale(-1,1)"
         id="path3309"
         style="fill:#999999;stroke:none;stroke-width:0.31281146;stroke-linecap:round;stroke-linejoin:round;stroke-miterlimit:4;stroke-dasharray:none;stroke-opacity:1"
         cx="-107.72235"
         cy="158.94882"
         rx="2.0348148"
         ry="0.85676408" />
      <path
         id="path3006"
         d="m 136.1138,148.10113 v 0.0313 c -2.53269,2.65249 -4.09783,6.24063 -4.09783,10.19765 0,2.481 0.6088,4.81329 1.68919,6.86621 l -0.0156,0.14077 c -0.37147,-0.62167 -14.23811,-8.5365 -14.17036,-9.58767 0.0759,-1.17784 16.59464,-7.64824 16.59464,-7.64824 z"
         style="fill:url(#linearGradient2228);fill-opacity:1;stroke:none;stroke-width:0.31281146;stroke-miterlimit:4;stroke-dasharray:none" />
    </g>
  </g>
</svg>
